[
    {
        "id": "fbd02907.5c1018",
        "type": "tab",
        "label": "Asterisk",
        "disabled": false,
        "info": ""
    },
    {
        "id": "7e19e10b.88e2e",
        "type": "tab",
        "label": "Firewall",
        "disabled": false,
        "info": ""
    },
    {
        "id": "8421f3c8.22352",
        "type": "subflow",
        "name": "Send to chat webhook",
        "info": "",
        "category": "",
        "in": [
            {
                "x": 80,
                "y": 200,
                "wires": [
                    {
                        "id": "e6eb3ec3.f9e92"
                    }
                ]
            }
        ],
        "out": [],
        "env": [
            {
                "name": "TOKEN",
                "type": "str",
                "value": "MISSING"
            }
        ],
        "color": "#DDAA99"
    },
    {
        "id": "28dc4e8a.808f62",
        "type": "group",
        "z": "fbd02907.5c1018",
        "name": "FastAGI - Notification",
        "style": {
            "fill": "#bfbfbf",
            "label": true,
            "fill-opacity": "0.43"
        },
        "nodes": [
            "a91341bc.1dbcd",
            "9df2cab8.86eb28",
            "c62d1be5.d2e848",
            "f9d71b44.17f868",
            "df9cc9c0.ee1078",
            "18aa8c7e.a9f144",
            "b2b2e4eb.56d2a8",
            "b0d4114c.4fbd6"
        ],
        "x": 134,
        "y": 119,
        "w": 992,
        "h": 242
    },
    {
        "id": "66dd85f2.b5f63c",
        "type": "group",
        "z": "fbd02907.5c1018",
        "name": "CDR - Notification",
        "style": {
            "label": true,
            "fill": "#bfc7d7",
            "fill-opacity": "0.6"
        },
        "nodes": [
            "4fbc44ed.6c8cfc",
            "8b6c0474.9481a8",
            "9b8e04bf.20bec8",
            "e6a1bfec.a0cd2",
            "79721c09.41c1c4"
        ],
        "x": 154,
        "y": 499,
        "w": 1052,
        "h": 82
    },
    {
        "id": "8cc62775.7339d8",
        "type": "pushbullet-config",
        "name": "Pushbullet personal account"
    },
    {
        "id": "fde8c9bf.829ec8",
        "type": "tail",
        "z": "7e19e10b.88e2e",
        "name": "tail auth.log",
        "filetype": "text",
        "split": "[\\r]{0,1}\\n",
        "filename": "/mnt/host/var/log/auth.log",
        "inputs": 0,
        "x": 130,
        "y": 180,
        "wires": [
            [
                "2156ba0f.22d8c6"
            ]
        ]
    },
    {
        "id": "2156ba0f.22d8c6",
        "type": "function",
        "z": "7e19e10b.88e2e",
        "name": "Parse auth log",
        "func": "const regex_ = /^([^\\s]+)\\s*([^\\s]+)\\s+([^:]+):\\s+(?:(.*?):\\s+)?([^;]+)(?:;(?:.*?\\srhost=([^\\s]+))?(?:.*?\\suser=([^\\s]+))?(.*))?$/;\n//               ^ts        ^host      ^process   ^pam          ^msg                      ^rhost                ^user     ^line\n\nconst captured = msg.payload.match(regex_);\nif (captured === null || captured[0] === undefined || captured.length === 0) {\n    msg.payload = {\n        original:  msg.payload,\n        error: true\n    };\n    return msg;\n}\n\nmsg.payload = {\n    original:  msg.payload,\n    error:     false,\n    timestamp: captured[1],\n    hostname:  captured[2],\n    process:   captured[3],\n    pam:       captured[4],\n    message:   captured[5],\n    rhost:     captured[6] || \"\",\n    user:      captured[7] || \"\",\n    line:      captured[8] || \"\"\n};\n\nreturn msg;",
        "outputs": 1,
        "noerr": 0,
        "x": 320,
        "y": 180,
        "wires": [
            [
                "b5e6820f.4cfab"
            ]
        ]
    },
    {
        "id": "ac920912.54ebb8",
        "type": "template",
        "z": "7e19e10b.88e2e",
        "name": "Chat message",
        "field": "payload",
        "fieldType": "msg",
        "format": "handlebars",
        "syntax": "mustache",
        "template": "payload={\"text\":\"{{payload.timestamp}} {{payload.process}} {{payload.message}} {{payload.rhost}} {{payload.user}}\"}\n",
        "output": "str",
        "x": 760,
        "y": 140,
        "wires": [
            [
                "431ff83f.76ef88"
            ]
        ]
    },
    {
        "id": "b5e6820f.4cfab",
        "type": "switch",
        "z": "7e19e10b.88e2e",
        "name": "Authentication failure",
        "property": "payload.message",
        "propertyType": "msg",
        "rules": [
            {
                "t": "cont",
                "v": "authentication failure",
                "vt": "str"
            },
            {
                "t": "else"
            }
        ],
        "checkall": "true",
        "repair": false,
        "outputs": 2,
        "x": 540,
        "y": 180,
        "wires": [
            [
                "ac920912.54ebb8"
            ],
            [
                "d85b45f0.c25848"
            ]
        ]
    },
    {
        "id": "d85b45f0.c25848",
        "type": "debug",
        "z": "7e19e10b.88e2e",
        "name": "Logging normal auth",
        "active": false,
        "tosidebar": true,
        "console": false,
        "tostatus": false,
        "complete": "payload",
        "targetType": "msg",
        "statusVal": "",
        "statusType": "auto",
        "x": 780,
        "y": 220,
        "wires": []
    },
    {
        "id": "46231126.f17e1",
        "type": "comment",
        "z": "7e19e10b.88e2e",
        "name": "Samples auth.log file",
        "info": "2020-06-13T11:38:08-05:00 ds918 sshd[24875]: PAM 1 more authentication failure; logname= uid=0 euid=0 tty=ssh ruser= rhost=192.168.1.5  user=bob\n2020-06-13T11:38:31-05:00 ds918 sshd[25441]: pam_unix(sshd:auth): authentication failure; logname= uid=0 euid=0 tty=ssh ruser= rhost=192.168.1.5  user=bob\n2020-10-28T21:38:15-05:00 ds918 auth.cgi: pam_unix(webui:auth): authentication failure; logname= uid=0 euid=0 tty= ruser= rhost=192.168.1.8\n\n\n\n2020-11-23T14:43:58-05:00 ds918 sudo: pam_unix(sudo:session): session closed for user root\n2020-11-23T14:44:02-05:00 ds918 sshd[16315]: pam_unix(sshd:session): session opened for user bob by (uid=0)\n2020-11-23T14:44:06-05:00 ds918 sudo:    bob : TTY=pts/35 ; PWD=/volume1/homes/bob ; USER=root ; COMMAND=/bin/su -\n2020-11-23T14:44:06-05:00 ds918 sudo: pam_unix(sudo:session): session opened for user root by bob(uid=0)\n2020-11-23T14:44:06-05:00 ds918 su: pam_unix(su-l:session): session opened for user root by bob(uid=0)\n\n\n2020-11-22T11:14:09-05:00 ds918 sudo: pam_unix(sudo:session): session opened for user root by bob(uid=0)\n2020-11-22T11:14:09-05:00 ds918 sudo: pam_unix(sudo:session): session closed for user root\n2020-11-22T11:15:09-05:00 ds918 sudo:    bob : TTY=pts/32 ; PWD=/volume1/homes/bob/bin ; USER=root ; COMMAND=/bin/cat /var/log/auth.log\n\n\nfunction parseLog(line) {\n    const regex_ = /^([^\\s]+)\\s*([^\\s]+)\\s+([^:]+):\\s+(?:(.*?):\\s+)?([^;]+)(?:;(?:.*?\\srhost=([^\\s]+))?(?:.*?\\suser=([^\\s]+))?(.*))?$/;\n    //                ^ts        ^host      ^process  ^pam          ^msg\n    const captured = line.match(regex_);\n    if (captured !== null && captured[0] !== undefined && captured.length > 0) {\n        return {\n            timestamp: captured[1],\n            hostname:  captured[2],\n            process:   captured[3],\n            pam:       captured[4],\n            message:   captured[5],\n            rhost:     captured[6],\n            user:      captured[7],\n            line:      captured[8]\n        };\n    }\n    console.log(`Line: ${line}`);\n    console.log('captured:', captured);\n    console.log(`capture length ${captured.length}`);\n    throw new Error(`INVALID URL FORMAT: ${line}`);\n}\n\nvar data = [\n\"2020-06-13T11:38:08-05:00 ds918 sshd[24875]: PAM 1 more authentication failure; logname= uid=0 euid=0 tty=ssh ruser= rhost=192.168.1.5  user=bob\",\n\"2020-06-13T11:38:31-05:00 ds918 sshd[25441]: pam_unix(sshd:auth): authentication failure; logname= uid=0 euid=0 tty=ssh ruser= rhost=192.168.1.5  user=bob\",\n\"2020-10-28T21:38:15-05:00 ds918 auth.cgi: pam_unix(webui:auth): authentication failure; logname= uid=0 euid=0 tty= ruser= rhost=192.168.1.8\",\n\"020-11-23T14:43:58-05:00 ds918 sudo: pam_unix(sudo:session): session closed for user root\",\n\"2020-11-23T14:44:02-05:00 ds918 sshd[16315]: pam_unix(sshd:session): session opened for user bob by (uid=0)\",\n\"2020-11-23T14:44:06-05:00 ds918 sudo:    bob : TTY=pts/35 ; PWD=/volume1/homes/bob ; USER=root ; COMMAND=/bin/su -\",\n\"2020-11-23T14:44:06-05:00 ds918 sudo: pam_unix(sudo:session): session opened for user root by bob(uid=0)\",\n\"2020-11-23T14:44:06-05:00 ds918 su: pam_unix(su-l:session): session opened for user root by bob(uid=0)\",\n\"2020-11-22T11:14:09-05:00 ds918 sudo: pam_unix(sudo:session): session opened for user root by bob(uid=0)\",\n\"2020-11-22T11:14:09-05:00 ds918 sudo: pam_unix(sudo:session): session closed for user root\",\n\"2020-11-22T11:15:09-05:00 ds918 sudo:    bob : TTY=pts/32 ; PWD=/volume1/homes/bob/bin ; USER=root ; COMMAND=/bin/cat /var/log/auth.log\"\n];\n\ndata.forEach(log => {\n    console.log(parseLog(log));\n});\n\ndata.forEach(log => {\n    captured = parseLog(log);\n    console.log(`${captured.timestamp} ${captured.process} ${captured.message} ${captured.rhost||\"\"} ${captured.user||\"\"}`);\n});",
        "x": 160,
        "y": 80,
        "wires": []
    },
    {
        "id": "a91341bc.1dbcd",
        "type": "template",
        "z": "fbd02907.5c1018",
        "g": "28dc4e8a.808f62",
        "name": "Chat message",
        "field": "payload",
        "fieldType": "msg",
        "format": "handlebars",
        "syntax": "mustache",
        "template": "payload={\"text\":\"{{payload.callerid}} {{payload.callerid_name}} {{{payload.timestamp}}}\"}",
        "output": "str",
        "x": 780,
        "y": 160,
        "wires": [
            [
                "b0d4114c.4fbd6"
            ]
        ]
    },
    {
        "id": "9df2cab8.86eb28",
        "type": "http in",
        "z": "fbd02907.5c1018",
        "g": "28dc4e8a.808f62",
        "name": "/api/v1/asterisk/inbound/cdr",
        "url": "/api/v1/asterisk/inbound/cdr",
        "method": "post",
        "upload": false,
        "swaggerDoc": "",
        "x": 280,
        "y": 260,
        "wires": [
            [
                "f9d71b44.17f868",
                "df9cc9c0.ee1078"
            ]
        ]
    },
    {
        "id": "c62d1be5.d2e848",
        "type": "http response",
        "z": "fbd02907.5c1018",
        "g": "28dc4e8a.808f62",
        "name": "HTTP/OK",
        "statusCode": "",
        "headers": {},
        "x": 720,
        "y": 320,
        "wires": []
    },
    {
        "id": "f9d71b44.17f868",
        "type": "change",
        "z": "fbd02907.5c1018",
        "g": "28dc4e8a.808f62",
        "name": "",
        "rules": [
            {
                "t": "set",
                "p": "payload",
                "pt": "msg",
                "to": "OK",
                "tot": "str"
            },
            {
                "t": "set",
                "p": "statusCode",
                "pt": "msg",
                "to": "200",
                "tot": "num"
            }
        ],
        "action": "",
        "property": "",
        "from": "",
        "to": "",
        "reg": false,
        "x": 540,
        "y": 320,
        "wires": [
            [
                "c62d1be5.d2e848"
            ]
        ]
    },
    {
        "id": "df9cc9c0.ee1078",
        "type": "function",
        "z": "fbd02907.5c1018",
        "g": "28dc4e8a.808f62",
        "name": "Timestamp request",
        "func": "const timestamp = new Date().toLocaleString(\n    \"fr-CA\", { \n        timeZone: \"America/Montreal\", \n        hour12: false, \n        month:'2-digit', \n        day:'2-digit',\n        year: 'numeric',\n        hour:'2-digit',\n        minute:'2-digit',\n        second:'2-digit'\n    });\nnode.log(timestamp)\nmsg.payload.timestamp = timestamp.replace(/\\//g,'-').replace(/,/g,' ').replace(/(\\d+)-(\\d+)-(\\d+)/, '$3-$1-$2');\n\nreturn msg;",
        "outputs": 1,
        "noerr": 0,
        "initialize": "",
        "finalize": "",
        "x": 550,
        "y": 200,
        "wires": [
            [
                "a91341bc.1dbcd",
                "18aa8c7e.a9f144"
            ]
        ]
    },
    {
        "id": "18aa8c7e.a9f144",
        "type": "template",
        "z": "fbd02907.5c1018",
        "g": "28dc4e8a.808f62",
        "name": "PushBullet message",
        "field": "payload",
        "fieldType": "msg",
        "format": "handlebars",
        "syntax": "mustache",
        "template": "{{payload.callerid}} {{payload.callerid_name}}\n{{{payload.timestamp}}}  ",
        "output": "str",
        "x": 800,
        "y": 240,
        "wires": [
            [
                "b2b2e4eb.56d2a8"
            ]
        ]
    },
    {
        "id": "b2b2e4eb.56d2a8",
        "type": "pushbullet",
        "z": "fbd02907.5c1018",
        "g": "28dc4e8a.808f62",
        "config": "8cc62775.7339d8",
        "pushtype": "note",
        "title": "${PUSHBULLET_TITLE}",
        "chan": "",
        "name": "PushBullet API",
        "x": 1020,
        "y": 240,
        "wires": []
    },
    {
        "id": "7cb3d17.cd6073",
        "type": "debug",
        "z": "8421f3c8.22352",
        "name": "HTTP/ERROR CDR",
        "active": true,
        "tosidebar": true,
        "console": true,
        "tostatus": false,
        "complete": "true",
        "targetType": "full",
        "statusVal": "",
        "statusType": "auto",
        "x": 820,
        "y": 240,
        "wires": []
    },
    {
        "id": "89e19893.330368",
        "type": "debug",
        "z": "8421f3c8.22352",
        "name": "HTTP/OK CDR",
        "active": false,
        "tosidebar": true,
        "console": false,
        "tostatus": false,
        "complete": "payload",
        "targetType": "msg",
        "statusVal": "",
        "statusType": "auto",
        "x": 800,
        "y": 160,
        "wires": []
    },
    {
        "id": "431ff83f.76ef88",
        "type": "subflow:8421f3c8.22352",
        "z": "7e19e10b.88e2e",
        "name": "Firewall channel",
        "env": [
            {
                "name": "TOKEN",
                "value": "FIREWALL_TOKEN",
                "type": "env"
            }
        ],
        "x": 960,
        "y": 140,
        "wires": []
    },
    {
        "id": "b0d4114c.4fbd6",
        "type": "subflow:8421f3c8.22352",
        "z": "fbd02907.5c1018",
        "g": "28dc4e8a.808f62",
        "name": "Asterisk channel",
        "env": [
            {
                "name": "TOKEN",
                "value": "ASTERISK_TOKEN",
                "type": "env"
            }
        ],
        "x": 1020,
        "y": 160,
        "wires": []
    },
    {
        "id": "4fbc44ed.6c8cfc",
        "type": "csv",
        "z": "fbd02907.5c1018",
        "g": "66dd85f2.b5f63c",
        "name": "Asterisk CDR",
        "sep": ",",
        "hdrin": "",
        "hdrout": "",
        "multi": "one",
        "ret": "\\n",
        "temp": "",
        "skip": "0",
        "strings": true,
        "x": 430,
        "y": 540,
        "wires": [
            [
                "e6a1bfec.a0cd2"
            ]
        ]
    },
    {
        "id": "8b6c0474.9481a8",
        "type": "tail",
        "z": "fbd02907.5c1018",
        "g": "66dd85f2.b5f63c",
        "name": "tail Master.csv",
        "filetype": "text",
        "split": "[\\r]{0,1}\\n",
        "filename": "/mnt/asterisk//log/cdr-csv/Master.csv",
        "inputs": 0,
        "x": 250,
        "y": 540,
        "wires": [
            [
                "4fbc44ed.6c8cfc"
            ]
        ]
    },
    {
        "id": "9b8e04bf.20bec8",
        "type": "template",
        "z": "fbd02907.5c1018",
        "g": "66dd85f2.b5f63c",
        "name": "Chat message",
        "field": "payload",
        "fieldType": "msg",
        "format": "handlebars",
        "syntax": "mustache",
        "template": "payload={\"text\":\"{{payload.col5}} {{payload.col15}} {{payload.col13}} secs {{payload.col10}} \"}",
        "output": "str",
        "x": 860,
        "y": 540,
        "wires": [
            [
                "79721c09.41c1c4"
            ]
        ]
    },
    {
        "id": "e6a1bfec.a0cd2",
        "type": "function",
        "z": "fbd02907.5c1018",
        "g": "66dd85f2.b5f63c",
        "name": "Filter Alpha Num",
        "func": "msg.payload.col5 = msg.payload.col5.replace(/[^a-zA-Z0-9 ()\\-_']/g,'');\nreturn msg;",
        "outputs": 1,
        "noerr": 0,
        "x": 630,
        "y": 540,
        "wires": [
            [
                "9b8e04bf.20bec8"
            ]
        ]
    },
    {
        "id": "79721c09.41c1c4",
        "type": "subflow:8421f3c8.22352",
        "z": "fbd02907.5c1018",
        "g": "66dd85f2.b5f63c",
        "name": "Asterisk channel",
        "env": [
            {
                "name": "TOKEN",
                "value": "ASTERISK_TOKEN",
                "type": "env"
            }
        ],
        "x": 1100,
        "y": 540,
        "wires": []
    },
    {
        "id": "cb234646.2aa468",
        "type": "comment",
        "z": "fbd02907.5c1018",
        "name": "Dialplan",
        "info": "[from-voip-provider]\n    exten => s,1,NoOp(\"Incoming call from VOIP provider\")\n    exten => s,2,Set(CURL_RESULT=${SHELL(wget -q -O - --post-data='{\"exten\":\"${EXTEN}\",\"uid\":\"${UNIQUEID}\",\"callerid_name\":\"${CALLERID(name)}\",\"callerid\":\"${CALLERID(num)}\"}' --header='Content-Type: application/json' http://node-red:1880/api/v1/asterisk/inbound/cdr)})\n    exten => s,3,Dial(SIP/100)\n    exten => s,n,Hangup\n",
        "x": 200,
        "y": 80,
        "wires": []
    },
    {
        "id": "93a1d644.784908",
        "type": "http request",
        "z": "8421f3c8.22352",
        "name": "Synology Chat  web hook",
        "method": "POST",
        "ret": "txt",
        "paytoqs": "ignore",
        "url": "",
        "tls": "",
        "persist": false,
        "proxy": "",
        "authType": "",
        "x": 430,
        "y": 200,
        "wires": [
            [
                "14bac139.b5ba1f"
            ]
        ]
    },
    {
        "id": "14bac139.b5ba1f",
        "type": "switch",
        "z": "8421f3c8.22352",
        "name": "OK",
        "property": "statusCode",
        "propertyType": "msg",
        "rules": [
            {
                "t": "btwn",
                "v": "200",
                "vt": "num",
                "v2": "299",
                "v2t": "num"
            },
            {
                "t": "else"
            }
        ],
        "checkall": "true",
        "repair": false,
        "outputs": 2,
        "x": 630,
        "y": 200,
        "wires": [
            [
                "89e19893.330368"
            ],
            [
                "7cb3d17.cd6073"
            ]
        ]
    },
    {
        "id": "e6eb3ec3.f9e92",
        "type": "change",
        "z": "8421f3c8.22352",
        "name": "Compose URL",
        "rules": [
            {
                "t": "set",
                "p": "tmp_url",
                "pt": "msg",
                "to": "SYNOLOGY_CHAT_URL",
                "tot": "env"
            },
            {
                "t": "set",
                "p": "tmp_token",
                "pt": "msg",
                "to": "TOKEN",
                "tot": "env"
            },
            {
                "t": "set",
                "p": "url",
                "pt": "msg",
                "to": "$join([tmp_url, tmp_token])",
                "tot": "jsonata"
            }
        ],
        "action": "",
        "property": "",
        "from": "",
        "to": "",
        "reg": false,
        "x": 220,
        "y": 200,
        "wires": [
            [
                "93a1d644.784908"
            ]
        ]
    }
]